<svg xmlns="http://www.w3.org/2000/svg" xmlns:xlink="http://www.w3.org/1999/xlink" preserveAspectRatio="xMidYMid" width="99.97" height="100" viewBox="0 0 99.97 100">
  <defs>
    <style>
      .cls-1 {
        fill: #fff;
        fill-rule: evenodd;
      }
    </style>
  </defs>
  <path d="M99.660,44.450 C99.502,43.044 97.863,41.987 96.445,41.987 C91.864,41.987 87.799,39.297 86.094,35.135 C84.353,30.872 85.476,25.902 88.889,22.769 C89.964,21.786 90.095,20.140 89.194,18.997 C86.849,16.019 84.184,13.328 81.274,10.996 C80.135,10.083 78.462,10.210 77.474,11.304 C74.494,14.605 69.142,15.831 65.005,14.105 C60.702,12.294 57.986,7.931 58.253,3.248 C58.340,1.776 57.265,0.497 55.798,0.326 C52.064,-0.106 48.296,-0.119 44.550,0.297 C43.103,0.457 42.028,1.706 42.076,3.159 C42.238,7.796 39.491,12.082 35.230,13.828 C31.143,15.498 25.827,14.281 22.853,11.008 C21.870,9.931 20.227,9.798 19.081,10.693 C16.085,13.044 13.360,15.737 10.993,18.691 C10.071,19.839 10.207,21.504 11.291,22.490 C14.771,25.643 15.894,30.656 14.087,34.969 C12.361,39.080 8.094,41.728 3.209,41.728 C1.624,41.677 0.495,42.743 0.320,44.185 C-0.119,47.941 -0.124,51.770 0.299,55.556 C0.457,56.968 2.145,58.016 3.578,58.016 C7.932,57.906 12.110,60.600 13.865,64.868 C15.612,69.131 14.487,74.099 11.069,77.235 C9.999,78.218 9.863,79.861 10.766,81.003 C13.087,83.962 15.754,86.655 18.673,89.007 C19.819,89.930 21.486,89.800 22.479,88.705 C25.470,85.396 30.823,84.172 34.942,85.901 C39.258,87.708 41.972,92.070 41.707,96.755 C41.620,98.227 42.699,99.510 44.160,99.676 C46.071,99.900 47.992,100.011 49.920,100.011 C51.749,100.011 53.578,99.911 55.408,99.707 C56.857,99.547 57.931,98.297 57.882,96.843 C57.715,92.208 60.467,87.922 64.724,86.179 C68.838,84.498 74.129,85.728 77.105,88.996 C78.093,90.071 79.727,90.202 80.878,89.312 C83.868,86.966 86.588,84.274 88.965,81.313 C89.889,80.166 89.758,78.500 88.667,77.511 C85.188,74.361 84.059,69.345 85.867,65.037 C87.565,60.981 91.674,58.258 96.093,58.258 L96.712,58.274 C98.146,58.391 99.465,57.286 99.638,55.822 C100.080,52.062 100.084,48.238 99.660,44.450 ZM49.980,78.833 C34.061,78.833 21.158,65.926 21.158,50.003 C21.158,34.080 34.062,21.172 49.980,21.172 C65.898,21.172 78.802,34.080 78.802,50.003 C78.802,55.407 77.313,60.462 74.725,64.785 L62.105,52.161 C63.018,50.006 63.501,47.670 63.501,45.258 C63.501,40.537 61.662,36.099 58.325,32.761 C54.988,29.423 50.551,27.585 45.832,27.585 C44.257,27.585 42.689,27.794 41.173,28.207 C40.509,28.389 39.966,28.936 39.789,29.602 C39.608,30.283 39.812,30.980 40.343,31.513 C40.343,31.513 46.574,37.793 48.659,39.878 C48.877,40.096 48.877,40.618 48.846,40.806 L48.827,40.943 C48.616,43.235 48.211,45.987 47.877,47.044 C47.832,47.089 47.790,47.127 47.744,47.172 C47.696,47.221 47.652,47.267 47.605,47.314 C46.534,47.658 43.741,48.068 41.413,48.277 L41.413,48.264 L41.309,48.291 C41.290,48.293 41.255,48.295 41.209,48.295 C40.958,48.295 40.588,48.225 40.251,47.889 C38.081,45.719 32.095,39.773 32.095,39.773 C31.558,39.237 31.007,39.125 30.640,39.125 C29.784,39.125 29.018,39.744 28.777,40.631 C27.129,46.731 28.876,53.293 33.337,57.756 C36.675,61.094 41.112,62.932 45.832,62.932 C48.242,62.932 50.578,62.450 52.732,61.536 L65.489,74.297 C61.010,77.164 55.692,78.833 49.980,78.833 Z" class="cls-1"/>
</svg>
