<svg xmlns="http://www.w3.org/2000/svg" xmlns:xlink="http://www.w3.org/1999/xlink" preserveAspectRatio="xMidYMid" width="73.69" height="100" viewBox="0 0 73.69 100">
  <defs>
    <style>
      .cls-1 {
        fill: #fff;
        fill-rule: evenodd;
      }
    </style>
  </defs>
  <path d="M37.427,99.894 C37.243,99.980 37.035,100.012 36.845,100.012 C36.633,100.012 36.449,99.980 36.256,99.894 C34.782,99.241 -0.014,83.683 -0.014,63.318 L-0.014,13.567 C-0.014,12.772 0.627,12.112 1.436,12.112 C30.422,12.112 35.450,0.999 35.487,0.881 C35.717,0.352 36.250,-0.012 36.830,-0.012 C36.842,-0.012 36.854,-0.012 36.854,-0.012 C37.452,-0.000 37.979,0.364 38.191,0.906 C38.236,1.011 43.157,12.112 72.253,12.112 C73.054,12.112 73.697,12.772 73.703,13.567 L73.703,63.318 C73.703,83.683 38.914,99.241 37.427,99.894 ZM65.696,60.424 L65.696,21.484 C65.696,20.856 65.193,20.338 64.562,20.338 C41.790,20.338 37.933,11.653 37.896,11.573 C37.731,11.141 37.320,10.858 36.854,10.852 C36.854,10.852 36.842,10.852 36.835,10.852 C36.379,10.852 35.965,11.135 35.787,11.555 C35.750,11.641 31.817,20.338 9.122,20.338 C8.491,20.338 7.984,20.856 7.984,21.484 L7.984,60.424 C7.984,76.357 35.239,88.549 36.382,89.055 C36.535,89.126 36.682,89.151 36.842,89.151 C36.989,89.151 37.154,89.126 37.295,89.055 C38.454,88.549 65.699,76.357 65.699,60.424 L65.696,60.424 ZM35.379,70.135 C35.284,70.388 35.070,70.557 34.821,70.613 C34.769,70.625 34.711,70.625 34.671,70.625 C34.463,70.625 34.267,70.554 34.126,70.394 L14.910,50.753 C14.756,50.593 20.548,45.425 20.830,45.625 L31.379,53.934 C35.489,49.080 45.610,38.148 59.650,29.497 C59.846,29.377 61.931,32.570 61.934,32.573 C62.063,32.872 61.980,33.220 61.747,33.442 C48.697,45.520 38.473,62.178 35.379,70.135 Z" class="cls-1"/>
</svg>
