<svg xmlns="http://www.w3.org/2000/svg" xmlns:xlink="http://www.w3.org/1999/xlink" preserveAspectRatio="xMidYMid" width="100" height="100.5" viewBox="0 0 100 100.5">
  <defs>
    <style>
      .cls-1, .cls-2 {
        fill: #fff;
        fill-rule: evenodd;
      }

      .cls-2 {
        stroke: #51b4d6;
        stroke-width: 1px;
      }
    </style>
  </defs>
  <g>
    <path d="M99.953,53.738 L98.509,60.648 C98.268,61.826 97.218,62.667 96.002,62.667 L92.926,62.667 C95.874,65.908 97.285,70.058 97.269,74.195 C97.249,78.781 95.487,83.370 91.807,86.706 L91.807,96.190 C91.807,98.285 90.084,99.991 87.966,99.991 L78.991,99.991 C76.868,99.991 75.149,98.285 75.149,96.190 L75.149,92.301 L24.852,92.301 L24.852,96.190 C24.852,98.285 23.131,99.991 21.011,99.991 L12.033,99.991 C9.912,99.991 8.192,98.285 8.192,96.190 L8.192,86.517 C8.156,86.486 8.117,86.458 8.079,86.428 C4.609,83.266 2.711,78.796 2.729,73.851 C2.747,69.847 4.097,65.847 6.880,62.670 L3.997,62.670 C2.786,62.670 1.736,61.828 1.490,60.650 L0.048,53.741 C-0.111,52.993 0.084,52.218 0.571,51.628 C1.055,51.037 1.782,50.693 2.555,50.693 L12.289,50.693 C14.704,44.430 17.820,38.283 21.380,35.962 C23.560,34.543 26.386,33.380 29.616,32.464 L42.000,32.464 L47.088,37.575 C38.355,37.862 30.012,39.437 25.597,42.311 C23.692,43.553 21.242,48.549 19.001,54.668 L81.001,54.668 C78.755,48.547 76.304,43.550 74.399,42.311 C69.987,39.437 61.645,37.861 52.911,37.575 L58.000,32.464 L70.391,32.464 C73.621,33.380 76.447,34.543 78.627,35.962 C82.184,38.280 85.308,44.424 87.715,50.693 L97.449,50.693 C98.214,50.693 98.944,51.037 99.433,51.628 C99.917,52.221 100.107,52.993 99.953,53.738 ZM21.667,67.329 C17.495,67.329 14.110,70.676 14.110,74.806 C14.110,78.936 17.495,82.283 21.667,82.283 C25.843,82.283 29.224,78.936 29.224,74.806 C29.224,70.676 25.843,67.329 21.667,67.329 ZM78.435,67.329 C74.263,67.329 70.878,70.676 70.878,74.806 C70.878,78.936 74.263,82.283 78.435,82.283 C82.606,82.283 85.992,78.936 85.992,74.806 C85.992,70.676 82.611,67.329 78.435,67.329 Z" class="cls-1"/>
    <path d="M70.000,28.750 L56.250,28.750 L50.000,34.999 L43.750,28.750 L30.000,28.750 C27.238,28.750 25.000,26.511 25.000,23.750 L25.000,5.000 C25.000,2.238 27.238,-0.000 30.000,-0.000 L70.000,-0.000 C72.761,-0.000 75.000,2.238 75.000,5.000 L75.000,23.750 C75.000,26.511 72.761,28.750 70.000,28.750 ZM49.997,12.708 C49.970,10.084 49.453,8.144 48.447,6.886 C47.441,5.629 45.872,5.000 43.742,5.000 C41.593,5.000 40.016,5.652 39.009,6.955 C38.003,8.259 37.500,10.251 37.500,12.934 L37.500,16.030 C37.536,18.595 38.062,20.523 39.078,21.814 C40.093,23.105 41.657,23.750 43.769,23.750 C45.908,23.750 47.481,23.090 48.488,21.770 C49.494,20.450 49.997,18.432 49.997,15.716 L49.997,12.708 ZM63.770,8.580 C62.956,7.858 62.129,7.496 60.842,7.496 L56.537,7.496 C56.447,7.496 56.373,7.523 56.315,7.576 C56.257,7.630 56.228,7.698 56.228,7.781 L56.228,13.993 L54.065,13.993 C53.975,13.993 53.901,14.021 53.843,14.077 C53.785,14.133 53.756,14.200 53.756,14.277 L53.756,14.975 C53.756,15.058 53.785,15.126 53.843,15.179 C53.901,15.233 53.975,15.259 54.065,15.259 L56.228,15.259 L56.228,16.308 L54.065,16.308 C53.975,16.308 53.901,16.334 53.843,16.388 C53.785,16.441 53.756,16.509 53.756,16.592 L53.756,17.312 C53.756,17.395 53.785,17.463 53.843,17.516 C53.901,17.570 53.975,17.596 54.065,17.596 L56.228,17.596 L56.228,19.718 C56.228,19.802 56.257,19.869 56.315,19.922 C56.373,19.976 56.447,20.002 56.537,20.002 L57.475,20.002 C57.559,20.002 57.632,19.976 57.693,19.922 C57.754,19.869 57.784,19.802 57.784,19.718 L57.784,17.596 L62.435,17.596 C62.525,17.596 62.599,17.570 62.657,17.516 C62.716,17.463 62.744,17.395 62.744,17.312 L62.744,16.592 C62.744,16.509 62.716,16.441 62.657,16.388 C62.599,16.334 62.525,16.308 62.435,16.308 L57.784,16.308 L57.784,15.259 L60.842,15.259 C62.129,15.259 62.955,14.898 63.770,14.176 C64.584,13.454 64.991,12.521 64.991,11.378 C64.991,10.235 64.584,9.302 63.770,8.580 ZM60.652,13.961 L57.798,13.961 L57.798,8.959 L60.652,8.959 C61.480,8.959 62.149,9.190 62.657,9.651 C63.165,10.113 63.419,10.716 63.419,11.460 C63.419,12.204 63.165,12.807 62.657,13.268 C62.149,13.730 61.480,13.961 60.652,13.961 ZM43.769,21.858 C42.509,21.858 41.568,21.388 40.947,20.448 C40.326,19.508 40.016,18.052 40.016,16.080 L40.016,12.370 C40.034,10.515 40.338,9.140 40.927,8.246 C41.516,7.352 42.454,6.905 43.742,6.905 C45.038,6.905 45.986,7.354 46.584,8.252 C47.182,9.151 47.481,10.582 47.481,12.545 L47.481,16.343 C47.454,18.248 47.139,19.644 46.536,20.529 C45.933,21.415 45.011,21.858 43.769,21.858 Z" class="cls-2"/>
  </g>
</svg>
