<svg xmlns="http://www.w3.org/2000/svg" xmlns:xlink="http://www.w3.org/1999/xlink" preserveAspectRatio="xMidYMid" width="87.531" height="82" viewBox="0 0 87.531 82">
  <defs>
    <style>
      .cls-1 {
        fill: #fff;
        fill-rule: evenodd;
      }
    </style>
  </defs>
  <path d="M87.399,24.439 C86.121,10.266 76.167,-0.017 63.710,-0.017 C55.411,-0.017 47.812,4.484 43.537,11.698 C39.299,4.390 32.012,-0.019 23.846,-0.019 C11.390,-0.019 1.435,10.264 0.159,24.438 C0.058,25.064 -0.356,28.359 0.903,33.732 C2.718,41.482 6.909,48.532 13.022,54.114 L43.516,82.005 L74.534,54.115 C80.647,48.532 84.838,41.484 86.653,33.732 C87.912,28.360 87.498,25.065 87.399,24.439 ZM26.945,13.686 C19.520,13.686 13.478,19.775 13.478,27.259 C13.478,28.198 12.725,28.956 11.794,28.956 C10.863,28.956 10.111,28.198 10.111,27.259 C10.111,17.904 17.663,10.293 26.945,10.293 C27.876,10.293 28.628,11.051 28.628,11.990 C28.628,12.928 27.874,13.686 26.945,13.686 Z" class="cls-1"/>
</svg>
