<svg xmlns="http://www.w3.org/2000/svg" xmlns:xlink="http://www.w3.org/1999/xlink" preserveAspectRatio="xMidYMid" width="83.719" height="100" viewBox="0 0 83.719 100">
  <defs>
    <style>
      .cls-1 {
        fill: #fff;
        fill-rule: evenodd;
      }
    </style>
  </defs>
  <path d="M83.634,83.437 C83.518,83.762 81.711,88.410 72.687,92.152 C72.161,91.487 71.456,90.984 70.660,90.704 C71.630,90.359 72.470,89.685 73.006,88.784 C73.804,87.438 73.830,85.756 73.075,84.392 C70.747,80.186 66.299,77.576 61.466,77.576 L61.463,77.576 L61.460,77.576 C57.927,77.580 54.607,78.952 52.112,81.439 C51.502,82.047 50.958,82.705 50.484,83.409 L33.219,83.409 C30.797,79.798 26.718,77.576 22.219,77.576 C17.381,77.583 12.939,80.207 10.619,84.427 C9.866,85.793 9.896,87.478 10.699,88.820 C11.238,89.721 12.080,90.392 13.051,90.735 C12.269,91.014 11.575,91.509 11.053,92.162 C2.005,88.418 0.196,83.762 0.080,83.437 C-0.008,83.188 -0.032,82.923 0.009,82.663 C0.433,80.043 2.825,66.791 8.295,63.129 C11.527,60.965 22.987,54.832 27.765,52.295 C28.317,52.002 28.992,52.060 29.485,52.445 C32.018,54.420 34.792,55.752 37.730,56.402 C38.249,56.517 38.676,56.884 38.864,57.377 L41.857,65.215 L44.849,57.377 C45.037,56.884 45.464,56.517 45.983,56.402 C48.921,55.752 51.696,54.420 54.228,52.445 C54.721,52.061 55.396,52.002 55.948,52.295 L56.030,52.338 C60.865,54.905 72.187,60.915 75.432,63.139 C80.184,66.393 82.553,75.553 83.704,82.663 C83.746,82.922 83.722,83.188 83.634,83.437 ZM41.857,54.647 C35.130,54.647 19.316,46.603 19.316,27.330 C19.316,24.642 19.382,22.046 19.605,19.592 C19.971,14.761 20.966,10.480 23.446,7.200 C26.625,2.738 32.187,0.013 41.857,0.013 C51.528,0.013 57.090,2.739 60.269,7.202 C62.747,10.482 63.743,14.761 64.108,19.591 C64.332,22.045 64.397,24.641 64.397,27.330 C64.397,46.603 48.583,54.647 41.857,54.647 ZM34.498,10.021 C35.155,11.670 35.484,12.494 36.141,14.143 C40.381,12.952 43.331,12.952 47.572,14.143 C48.229,12.494 48.558,11.670 49.214,10.021 C43.912,8.426 39.802,8.426 34.498,10.021 ZM61.044,23.151 C60.784,23.716 59.681,25.885 57.973,26.089 C56.010,26.323 52.751,19.181 41.857,19.163 C30.961,19.181 27.703,26.323 25.740,26.089 C24.032,25.886 22.929,23.716 22.669,23.151 C22.616,24.534 22.597,25.934 22.597,27.330 C22.597,36.751 26.783,42.588 30.296,45.826 C34.721,49.906 39.634,51.387 41.857,51.387 C44.080,51.387 48.993,49.906 53.418,45.826 C56.930,42.588 61.116,36.751 61.116,27.330 C61.116,25.934 61.097,24.534 61.044,23.151 ZM49.925,27.978 C48.646,27.978 47.605,28.982 47.605,30.352 L45.226,30.352 C45.226,27.613 47.334,25.544 49.925,25.544 C52.516,25.544 54.624,27.613 54.624,30.352 L52.244,30.352 C52.244,28.982 51.204,27.978 49.925,27.978 ZM51.902,37.838 L53.901,39.159 C51.375,43.158 46.963,45.566 42.359,45.566 C41.847,45.566 41.333,45.537 40.818,45.476 C36.809,45.003 33.102,42.642 30.902,39.159 L32.901,37.838 C34.719,40.715 37.780,42.667 41.091,43.057 C45.339,43.559 49.583,41.509 51.902,37.838 ZM34.878,27.978 C33.599,27.978 32.558,28.982 32.558,30.352 L30.179,30.352 C30.179,27.613 32.287,25.544 34.878,25.544 C37.469,25.544 39.577,27.613 39.577,30.352 L37.198,30.352 C37.198,28.982 36.157,27.978 34.878,27.978 ZM14.538,87.111 L14.537,87.111 C14.339,87.111 14.155,87.008 14.054,86.838 C13.953,86.669 13.949,86.459 14.044,86.286 C15.680,83.310 18.812,81.459 22.219,81.454 C26.147,81.454 29.507,83.875 30.885,87.286 L52.818,87.286 C53.279,86.137 53.970,85.080 54.877,84.177 C56.635,82.424 58.975,81.457 61.465,81.453 C64.882,81.453 68.013,83.294 69.654,86.257 C69.749,86.430 69.747,86.640 69.645,86.810 C69.545,86.980 69.361,87.084 69.162,87.085 L60.846,87.097 C60.699,87.446 60.419,88.414 60.423,90.720 C60.426,93.025 60.709,93.991 60.856,94.339 L69.175,94.328 L69.176,94.328 C69.374,94.328 69.558,94.431 69.659,94.600 C69.760,94.770 69.764,94.980 69.669,95.153 C68.033,98.127 64.900,99.980 61.495,99.985 C61.494,99.985 61.481,99.985 61.481,99.985 C57.563,99.984 54.205,97.563 52.828,94.151 L30.895,94.151 C30.434,95.301 29.743,96.357 28.837,97.261 C27.078,99.014 24.738,99.981 22.247,99.985 L22.233,99.985 C18.832,99.985 15.699,98.143 14.059,95.179 C13.963,95.007 13.967,94.796 14.067,94.627 C14.169,94.457 14.352,94.352 14.550,94.352 L22.867,94.339 C23.014,93.992 23.294,93.024 23.290,90.719 C23.287,88.412 23.004,87.446 22.856,87.098 L14.538,87.111 Z" class="cls-1"/>
</svg>
