<svg xmlns="http://www.w3.org/2000/svg" xmlns:xlink="http://www.w3.org/1999/xlink" preserveAspectRatio="xMidYMid" width="22" height="22" viewBox="0 0 22 22">
  <defs>
    <style>
      .cls-1 {
        fill: #fff;
        fill-rule: evenodd;
      }
    </style>
  </defs>
  <path d="M11.000,21.999 C4.925,21.999 -0.000,17.075 -0.000,10.999 C-0.000,4.924 4.925,-0.001 11.000,-0.001 C17.075,-0.001 22.000,4.924 22.000,10.999 C22.000,17.075 17.075,21.999 11.000,21.999 ZM11.000,0.999 C5.477,0.999 1.000,5.476 1.000,10.999 C1.000,16.522 5.477,20.999 11.000,20.999 C16.523,20.999 21.000,16.522 21.000,10.999 C21.000,5.476 16.523,0.999 11.000,0.999 ZM12.000,11.999 L10.000,11.999 L10.000,12.999 L13.500,12.999 C13.776,12.999 14.000,13.223 14.000,13.499 C14.000,13.775 13.776,13.999 13.500,13.999 L10.000,13.999 L10.000,15.499 C10.000,15.775 9.776,15.999 9.500,15.999 C9.224,15.999 9.000,15.775 9.000,15.499 L9.000,13.999 L7.500,13.999 C7.224,13.999 7.000,13.775 7.000,13.499 C7.000,13.223 7.224,12.999 7.500,12.999 L9.000,12.999 L9.000,11.999 L7.500,11.999 C7.224,11.999 7.000,11.776 7.000,11.500 C7.000,11.223 7.224,10.999 7.500,10.999 L9.000,10.999 L9.000,6.499 C9.000,6.223 9.224,5.999 9.500,5.999 L12.000,5.999 C13.656,5.999 15.000,7.343 15.000,8.999 C15.000,10.656 13.656,11.999 12.000,11.999 ZM12.000,7.000 L10.000,7.000 L10.000,10.999 L12.000,10.999 C13.104,10.999 14.000,10.104 14.000,8.999 C14.000,7.895 13.104,7.000 12.000,7.000 Z" class="cls-1"/>
</svg>
